1 10 20
100 200 125
201 210 89
900 1000 174
10 15 18
20 30 112
30 45 110
40 60 113
50 75 116
60 90 116
70 105 119
80 120 119
90 135 122
100 150 122
110 165 122
100 200 125
78 234 128
89 178 125
99 297 128
90 180 125
10 30 112
1000 2000 182
89 267 128
667 1334 182
89 178 125
851 2553 209
33 66 113
1 3 8
1126 2252 183
10 30 112
1309 2618 209
1400 4200 238
11 22 21
777 1554 182
818 2454 183
858 1716 182
899 2697 209
940 1880 182
980 2940 217
1021 2042 182
1061 3183 217
1102 2204 182
1143 2286 183
1183 3549 217
1224 2448 183
1264 3792 238
1305 2610 209
1346 4038 238
1386 2772 209
1427 4281 238
1467 2934 217
1508 3016 217
1548 4644 238
1589 3178 217
1630 4890 238
1670 3340 217
1711 5133 238
1751 3502 217
8 16 20
78 234 128
7 14 20
99 297 128
2 4 8
10 30 112
3 6 9
89 267 128
90 180 125
89 178 125
79 237 128
8 16 20
10 30 112
12 24 21
102 306 128
87 174 125
66 198 125
68 136 122
70 140 122
72 216 125
74 148 122
76 228 125
78 156 122
80 240 128
82 164 122
84 252 128
86 172 125
88 176 125
90 270 128
92 184 125
94 282 128
96 192 125
99 297 128
101 202 125
103 309 128
4 8 17
9 27 112
21 84 116
74 222 125
7 14 20
11 33 112
18 36 112
89 267 128
58 116 119
65 195 125
71 284 128
78 234 128
84 168 122
91 273 128
97 194 125
103 309 128
110 220 125
116 348 144
123 492 144
129 258 128
136 408 144
142 568 144
149 447 144
155 310 128
162 486 144
168 336 144
175 525 144
181 362 144
188 564 144
194 388 144
200 600 144
207 828 171
213 639 144
220 440 144
226 678 145
233 466 144
239 717 171
246 492 144
252 756 171
259 1036 179
265 795 171
272 544 144
278 834 171
284 568 144
291 873 179
297 891 179
304 608 144
310 930 179
317 634 144
323 969 179
330 1320 182
336 1008 179
343 686 145
349 1047 179
356 712 171
362 1086 179
369 1107 179
375 750 171
381 1143 179
388 776 171
394 1182 182
401 1604 182
407 1221 182
414 828 171
420 1260 182
427 854 171
433 1299 182
440 1320 182
446 892 179
