...........................
----------------------------------------------------------------------
Ran 27 tests in 0.024s

OK
Name             Stmts   Miss Branch BrPart  Cover   Missing
------------------------------------------------------------
Collatz.py          25      0     10      0   100%
TestCollatz.py     114      0      0      0   100%
------------------------------------------------------------
TOTAL              139      0     10      0   100%
